{
    "csession_cookie": "csess",
    "csession_key": "password",
    "db": {
        "dsn": "mysql:host=localhost;dbname=phpminweb;charset=utf8mb4",
        "username": "root",
        "password": ""
    }
}
